Ve370/P3/1b/result1b.txt
Vivado Simulator 2019.2
Time resolution is 1 ps
Cache Vesion: 1b
Round           0: readWrite = 0, address =    0, addr_tag=00000
hit_flag=0, addr_cache=0000000000,index=0
valid bit=0
addrmem=   0,read_mem=0
ReadData=         0
Set0:LRU=1
Block0: Tag=00000; V=1; Word0=00000000000000000000000000000000; Word1=00000000000000000000000000000001; Word2=00000000000000000000000000000010; Word3=00000000000000000000000000000011
Block1: Tag=00000; V=0; Word0=00000000000000000000000000000000; Word1=00000000000000000000000000000000; Word2=00000000000000000000000000000000; Word3=00000000000000000000000000000000
Set1:LRU=0
Block0: Tag=00000; V=0; Word0=00000000000000000000000000000000; Word1=00000000000000000000000000000000; Word2=00000000000000000000000000000000; Word3=00000000000000000000000000000000
Block1: Tag=00000; V=0; Word0=00000000000000000000000000000000; Word1=00000000000000000000000000000000; Word2=00000000000000000000000000000000; Word3=00000000000000000000000000000000
Mem[4]=         4, Mem[5]=         5, Mem[6]=         6,Mem[7]=         7
Mem[8]=         8, Mem[9]=         9, Mem[10]=        10,Mem[11]=        11
Mem[12]=        12,Mem[13]=        13,Mem[14]=        14,Mem[15]=        15
Mem[16]=        16,Mem[17]=        17,Mem[18]=        18,Mem[19]=        19
Round           1: readWrite = 1, address =    0, addr_tag=00000
hit_flag=1, addr_cache=0000000000,index=0
valid bit=0
addrmem=   0,read_mem=1
ReadData=         0
Set0:LRU=1
Block0: Tag=00000; V=1; Word0=00000000000000000000000011111111; Word1=00000000000000000000000000000001; Word2=00000000000000000000000000000010; Word3=00000000000000000000000000000011
Block1: Tag=00000; V=0; Word0=00000000000000000000000000000000; Word1=00000000000000000000000000000000; Word2=00000000000000000000000000000000; Word3=00000000000000000000000000000000
Set1:LRU=0
Block0: Tag=00000; V=0; Word0=00000000000000000000000000000000; Word1=00000000000000000000000000000000; Word2=00000000000000000000000000000000; Word3=00000000000000000000000000000000
Block1: Tag=00000; V=0; Word0=00000000000000000000000000000000; Word1=00000000000000000000000000000000; Word2=00000000000000000000000000000000; Word3=00000000000000000000000000000000
Mem[4]=         4, Mem[5]=         5, Mem[6]=         6,Mem[7]=         7
Mem[8]=         8, Mem[9]=         9, Mem[10]=        10,Mem[11]=        11
Mem[12]=        12,Mem[13]=        13,Mem[14]=        14,Mem[15]=        15
Mem[16]=        16,Mem[17]=        17,Mem[18]=        18,Mem[19]=        19
Round           2: readWrite = 0, address =    0, addr_tag=00000
hit_flag=1, addr_cache=0000000000,index=0
valid bit=0
addrmem=   0,read_mem=1
ReadData=       255
Set0:LRU=1
Block0: Tag=00000; V=1; Word0=00000000000000000000000011111111; Word1=00000000000000000000000000000001; Word2=00000000000000000000000000000010; Word3=00000000000000000000000000000011
Block1: Tag=00000; V=0; Word0=00000000000000000000000000000000; Word1=00000000000000000000000000000000; Word2=00000000000000000000000000000000; Word3=00000000000000000000000000000000
Set1:LRU=0
Block0: Tag=00000; V=0; Word0=00000000000000000000000000000000; Word1=00000000000000000000000000000000; Word2=00000000000000000000000000000000; Word3=00000000000000000000000000000000
Block1: Tag=00000; V=0; Word0=00000000000000000000000000000000; Word1=00000000000000000000000000000000; Word2=00000000000000000000000000000000; Word3=00000000000000000000000000000000
Mem[4]=         4, Mem[5]=         5, Mem[6]=         6,Mem[7]=         7
Mem[8]=         8, Mem[9]=         9, Mem[10]=        10,Mem[11]=        11
Mem[12]=        12,Mem[13]=        13,Mem[14]=        14,Mem[15]=        15
Mem[16]=        16,Mem[17]=        17,Mem[18]=        18,Mem[19]=        19
Round           3: readWrite = 0, address =  512, addr_tag=10000
hit_flag=0, addr_cache=1000000000,index=0
valid bit=0
addrmem= 512,read_mem=0
ReadData=       128
Set0:LRU=0
Block0: Tag=00000; V=1; Word0=00000000000000000000000011111111; Word1=00000000000000000000000000000001; Word2=00000000000000000000000000000010; Word3=00000000000000000000000000000011
Block1: Tag=10000; V=1; Word0=00000000000000000000000010000000; Word1=00000000000000000000000010000001; Word2=00000000000000000000000010000010; Word3=00000000000000000000000010000011
Set1:LRU=0
Block0: Tag=00000; V=0; Word0=00000000000000000000000000000000; Word1=00000000000000000000000000000000; Word2=00000000000000000000000000000000; Word3=00000000000000000000000000000000
Block1: Tag=00000; V=0; Word0=00000000000000000000000000000000; Word1=00000000000000000000000000000000; Word2=00000000000000000000000000000000; Word3=00000000000000000000000000000000
Mem[4]=         4, Mem[5]=         5, Mem[6]=         6,Mem[7]=         7
Mem[8]=         8, Mem[9]=         9, Mem[10]=        10,Mem[11]=        11
Mem[12]=        12,Mem[13]=        13,Mem[14]=        14,Mem[15]=        15
Mem[16]=        16,Mem[17]=        17,Mem[18]=        18,Mem[19]=        19
Round           4: readWrite = 0, address =    0, addr_tag=00000
hit_flag=1, addr_cache=1000000000,index=0
valid bit=0
addrmem= 512,read_mem=0
ReadData=       255
Set0:LRU=1
Block0: Tag=00000; V=1; Word0=00000000000000000000000011111111; Word1=00000000000000000000000000000001; Word2=00000000000000000000000000000010; Word3=00000000000000000000000000000011
Block1: Tag=10000; V=1; Word0=00000000000000000000000010000000; Word1=00000000000000000000000010000001; Word2=00000000000000000000000010000010; Word3=00000000000000000000000010000011
Set1:LRU=0
Block0: Tag=00000; V=0; Word0=00000000000000000000000000000000; Word1=00000000000000000000000000000000; Word2=00000000000000000000000000000000; Word3=00000000000000000000000000000000
Block1: Tag=00000; V=0; Word0=00000000000000000000000000000000; Word1=00000000000000000000000000000000; Word2=00000000000000000000000000000000; Word3=00000000000000000000000000000000
Mem[4]=         4, Mem[5]=         5, Mem[6]=         6,Mem[7]=         7
Mem[8]=         8, Mem[9]=         9, Mem[10]=        10,Mem[11]=        11
Mem[12]=        12,Mem[13]=        13,Mem[14]=        14,Mem[15]=        15
Mem[16]=        16,Mem[17]=        17,Mem[18]=        18,Mem[19]=        19
Round           5: readWrite = 0, address =  768, addr_tag=11000
hit_flag=0, addr_cache=1100000000,index=0
valid bit=0
addrmem= 768,read_mem=0
ReadData=       192
Set0:LRU=0
Block0: Tag=00000; V=1; Word0=00000000000000000000000011111111; Word1=00000000000000000000000000000001; Word2=00000000000000000000000000000010; Word3=00000000000000000000000000000011
Block1: Tag=11000; V=1; Word0=00000000000000000000000011000000; Word1=00000000000000000000000011000001; Word2=00000000000000000000000011000010; Word3=00000000000000000000000011000011
Set1:LRU=0
Block0: Tag=00000; V=0; Word0=00000000000000000000000000000000; Word1=00000000000000000000000000000000; Word2=00000000000000000000000000000000; Word3=00000000000000000000000000000000
Block1: Tag=00000; V=0; Word0=00000000000000000000000000000000; Word1=00000000000000000000000000000000; Word2=00000000000000000000000000000000; Word3=00000000000000000000000000000000
Mem[4]=         4, Mem[5]=         5, Mem[6]=         6,Mem[7]=         7
Mem[8]=         8, Mem[9]=         9, Mem[10]=        10,Mem[11]=        11
Mem[12]=        12,Mem[13]=        13,Mem[14]=        14,Mem[15]=        15
Mem[16]=        16,Mem[17]=        17,Mem[18]=        18,Mem[19]=        19
Round           6: readWrite = 0, address =  512, addr_tag=10000
hit_flag=0, addr_cache=1000000000,index=0
valid bit=0
addrmem= 512,read_mem=0
ReadData=       128
Set0:LRU=1
Block0: Tag=10000; V=1; Word0=00000000000000000000000010000000; Word1=00000000000000000000000010000001; Word2=00000000000000000000000010000010; Word3=00000000000000000000000010000011
Block1: Tag=11000; V=1; Word0=00000000000000000000000011000000; Word1=00000000000000000000000011000001; Word2=00000000000000000000000011000010; Word3=00000000000000000000000011000011
Set1:LRU=0
Block0: Tag=00000; V=0; Word0=00000000000000000000000000000000; Word1=00000000000000000000000000000000; Word2=00000000000000000000000000000000; Word3=00000000000000000000000000000000
Block1: Tag=00000; V=0; Word0=00000000000000000000000000000000; Word1=000000000